NOTA 4


==================================
1. 
5.0
BUEN TRABAJO!!
==================================
2.

2.5
- NO EJECUTA, pero tienes bien cosas de código


==================================
3.
----------------------------------
p1
5 
- Buen trabajo
----------------------------------
p2
5
- Buen trabajo

==================================
4.
5
- BUEN TRABAJO!!