NOTA 4,77


==================================
1.
5.0
BUEN TRABAJO!!
==================================
2.

4.5
- No es claro como ingresar las variables a sistemaCuna
- El plot no va en el rango solicitado, el "t" es el que retorna tRecorrido


==================================
3.
----------------------------------
p1
4,7
- BUEN TRABAJO!!
- Recuerda no definir métodos antes de __name__ == "__main__" (solo en casos extremos)
----------------------------------
p2
5
- BUEN TRABAJO!!

==================================
4.
5
- BUEN TRABAJO!!